
********************************************************
 CAEN SpA - Front-End Division                          
--------------------------------------------------------
 CAEN VME Firmware Upgrade                              
 Version 1.2                                             
********************************************************

Number of Pages 633, RegSize 2, PageSize 264, Firstpagestd 768
Board Types: V1190

Overwriting Standard image of the firmware with v1190_rev_0.C.1.rbf
0% Done
Writing
 Write: Address 0x81032 , 			        Data	0x0 , 					Size	2 
gefvme_openWindow: Slot 0, VME addr 0x00081032, am 0x00, size 0x00000004 4
 Write: Address 0x81034 , 			        Data	0x82 , 					Size	2 
 Write: Address 0x81034 , 			        Data	0x6 , 					Size	2 
 Write: Address 0x81034 , 			        Data	0x0 , 					Size	2 
 Write: Address 0x81034 , 			        Data	0x0 , 					Size	2 
 Write: Address 0x81034 , 			        Data	0xff , 					Size	2 
 Write: Address 0x81034 , 			        Data	0xff , 					Size	2 
 Write: Address 0x81034 , 			        Data	0x46 , 					Size	2 
 Write: Address 0x81034 , 			        Data	0xee , 					Size	2 
 Write: Address 0x81034 , 			        Data	0xfc , 					Size	2 
 Write: Address 0x81034 , 			        Data	0x0 , 					Size	2 
 Write: Address 0x81034 , 			        Data	0xff , 					Size	2 
 Write: Address 0x81034 , 			        Data	0xff , 					Size	2 
 Write: Address 0x81034 , 			        Data	0xff , 					Size	2 
 Write: Address 0x81034 , 			        Data	0xff , 					Size	2 
 Write: Address 0x81034 , 			        Data	0xff , 					Size	2 
 Write: Address 0x81034 , 			        Data	0xff , 					Size	2 
 Write: Address 0x81034 , 			        Data	0xff , 					Size	2 
 Write: Address 0x81034 , 			        Data	0xff , 					Size	2 
 Write: Address 0x81034 , 			        Data	0xff , 					Size	2 
 Write: Address 0x81034 , 			        Data	0xff , 					Size	2 
 Write: Address 0x81034 , 			        Data	0xff , 					Size	2 
 Write: Address 0x81034 , 			        Data	0xff , 					Size	2 
 Write: Address 0x81034 , 			        Data	0xff , 					Size	2 
 Write: Address 0x81034 , 			        Data	0xff , 					Size	2 
 Write: Address 0x81034 , 			        Data	0xff , 					Size	2 
 Write: Address 0x81034 , 			        Data	0xff , 					Size	2 
 Write: Address 0x81034 , 			        Data	0xff , 					Size	2 
 Write: Address 0x81034 , 			        Data	0xff , 					Size	2 
 Write: Address 0x81034 , 			        Data	0xff , 					Size	2 
 Write: Address 0x81034 , 			        Data	0xff , 					Size	2 
 Write: Address 0x81034 , 			        Data	0xff , 					Size	2 
 Write: Address 0x81034 , 			        Data	0xff , 					Size	2 
 Write: Address 0x81034 , 			        Data	0xff , 					Size	2 
 Write: Address 0x81034 , 			        Data	0xff , 					Size	2 
 Write: Address 0x81034 , 			        Data	0xff , 					Size	2 
 Write: Address 0x81034 , 			        Data	0xff , 					Size	2 
 Write: Address 0x81034 , 			        Data	0xff , 					Size	2 
 Write: Address 0x81034 , 			        Data	0xff , 					Size	2 
 Write: Address 0x81034 , 			        Data	0xff , 					Size	2 
 Write: Address 0x81034 , 			        Data	0xff , 					Size	2 
 Write: Address 0x81034 , 			        Data	0xff , 					Size	2 
 Write: Address 0x81034 , 			        Data	0xff , 					Size	2 
 Write: Address 0x81034 , 			        Data	0xff , 					Size	2 
 Write: Address 0x81034 , 			        Data	0xff , 					Size	2 
 Write: Address 0x81034 , 			        Data	0xff , 					Size	2 
 Write: Address 0x81034 , 			        Data	0xff , 					Size	2 
 Write: Address 0x81034 , 			        Data	0xff , 					Size	2 
 Write: Address 0x81034 , 			        Data	0xff , 					Size	2 
 Write: Address 0x81034 , 			        Data	0xff , 					Size	2 
 Write: Address 0x81034 , 			        Data	0xff , 					Size	2 
 Write: Address 0x81034 , 			        Data	0xff , 					Size	2 
 Write: Address 0x81034 , 			        Data	0xff , 					Size	2 
 Write: Address 0x81034 , 			        Data	0xff , 					Size	2 
 Write: Address 0x81034 , 			        Data	0xff , 					Size	2 
 Write: Address 0x81034 , 			        Data	0xff , 					Size	2 
 Write: Address 0x81034 , 			        Data	0xff , 					Size	2 
 Write: Address 0x81034 , 			        Data	0xff , 					Size	2 
 Write: Address 0x81034 , 			        Data	0xff , 					Size	2 
 Write: Address 0x81034 , 			        Data	0xff , 					Size	2 
 Write: Address 0x81034 , 			        Data	0xff , 					Size	2 
 Write: Address 0x81034 , 			        Data	0xff , 					Size	2 
 Write: Address 0x81034 , 			        Data	0xff , 					Size	2 
 Write: Address 0x81034 , 			        Data	0xff , 					Size	2 
 Write: Address 0x81034 , 			        Data	0xff , 					Size	2 
 Write: Address 0x81034 , 			        Data	0xff , 					Size	2 
 Write: Address 0x81034 , 			        Data	0xff , 					Size	2 
 Write: Address 0x81034 , 			        Data	0xff , 					Size	2 
 Write: Address 0x81034 , 			        Data	0xff , 					Size	2 
 Write: Address 0x81034 , 			        Data	0xff , 					Size	2 
 Write: Address 0x81034 , 			        Data	0xff , 					Size	2 
 Write: Address 0x81034 , 			        Data	0xff , 					Size	2 
 Write: Address 0x81034 , 			        Data	0xff , 					Size	2 
 Write: Address 0x81034 , 			        Data	0xff , 					Size	2 
 Write: Address 0x81034 , 			        Data	0xff , 					Size	2 
 Write: Address 0x81034 , 			        Data	0xff , 					Size	2 
 Write: Address 0x81034 , 			        Data	0xff , 					Size	2 
 Write: Address 0x81034 , 			        Data	0xff , 					Size	2 
 Write: Address 0x81034 , 			        Data	0xff , 					Size	2 
 Write: Address 0x81034 , 			        Data	0xff , 					Size	2 
 Write: Address 0x81034 , 			        Data	0xff , 					Size	2 
 Write: Address 0x81034 , 			        Data	0xff , 					Size	2 
 Write: Address 0x81034 , 			        Data	0xff , 					Size	2 
 Write: Address 0x81034 , 			        Data	0xff , 					Size	2 
 Write: Address 0x81034 , 			        Data	0xff , 					Size	2 
 Write: Address 0x81034 , 			        Data	0xff , 					Size	2 
 Write: Address 0x81034 , 			        Data	0xff , 					Size	2 
 Write: Address 0x81034 , 			        Data	0xff , 					Size	2 
 Write: Address 0x81034 , 			        Data	0xff , 					Size	2 
 Write: Address 0x81034 , 			        Data	0xff , 					Size	2 
 Write: Address 0x81034 , 			        Data	0xff , 					Size	2 
 Write: Address 0x81034 , 			        Data	0xff , 					Size	2 
 Write: Address 0x81034 , 			        Data	0xff , 					Size	2 
 Write: Address 0x81034 , 			        Data	0xff , 					Size	2 
 Write: Address 0x81034 , 			        Data	0xff , 					Size	2 
 Write: Address 0x81034 , 			        Data	0xff , 					Size	2 
 Write: Address 0x81034 , 			        Data	0xff , 					Size	2 
 Write: Address 0x81034 , 			        Data	0xff , 					Size	2 
 Write: Address 0x81034 , 			        Data	0xff , 					Size	2 
 Write: Address 0x81034 , 			        Data	0xff , 					Size	2 
 Write: Address 0x81034 , 			        Data	0xff , 					Size	2 
 Write: Address 0x81034 , 			        Data	0xff , 					Size	2 
 Write: Address 0x81034 , 			        Data	0xff , 					Size	2 
 Write: Address 0x81034 , 			        Data	0xff , 					Size	2 
 Write: Address 0x81034 , 			        Data	0xff , 					Size	2 
 Write: Address 0x81034 , 			        Data	0xff , 					Size	2 
 Write: Address 0x81034 , 			        Data	0xff , 					Size	2 
 Write: Address 0x81034 , 			        Data	0xff , 					Size	2 
 Write: Address 0x81034 , 			        Data	0x1 , 					Size	2 
 Write: Address 0x81034 , 			        Data	0x22 , 					Size	2 
 Write: Address 0x81034 , 			        Data	0x98 , 					Size	2 
 Write: Address 0x81034 , 			        Data	0x90 , 					Size	2 
 Write: Address 0x81034 , 			        Data	0x48 , 					Size	2 
 Write: Address 0x81034 , 			        Data	0xaa , 					Size	2 
 Write: Address 0x81034 , 			        Data	0x5 , 					Size	2 
 Write: Address 0x81034 , 			        Data	0x30 , 					Size	2 
 Write: Address 0x81034 , 			        Data	0x2 , 					Size	2 
 Write: Address 0x81034 , 			        Data	0x80 , 					Size	2 
 Write: Address 0x81034 , 			        Data	0xc , 					Size	2 
 Write: Address 0x81034 , 			        Data	0x0 , 					Size	2 
 Write: Address 0x81034 , 			        Data	0xa0 , 					Size	2 
 Write: Address 0x81034 , 			        Data	0x63 , 					Size	2 
 Write: Address 0x81034 , 			        Data	0x0 , 					Size	2 
 Write: Address 0x81034 , 			        Data	0x28 , 					Size	2 
 Write: Address 0x81034 , 			        Data	0x1 , 					Size	2 
 Write: Address 0x81034 , 			        Data	0x40 , 					Size	2 
 Write: Address 0x81034 , 			        Data	0xa , 					Size	2 
 Write: Address 0x81034 , 			        Data	0x5 , 					Size	2 
 Write: Address 0x81034 , 			        Data	0x50 , 					Size	2 
 Write: Address 0x81034 , 			        Data	0x28 , 					Size	2 
 Write: Address 0x81034 , 			        Data	0x1 , 					Size	2 
 Write: Address 0x81034 , 			        Data	0x84 , 					Size	2 
 Write: Address 0x81034 , 			        Data	0x80 , 					Size	2 
 Write: Address 0x81034 , 			        Data	0x24 , 					Size	2 
 Write: Address 0x81034 , 			        Data	0x1 , 					Size	2 
 Write: Address 0x81034 , 			        Data	0x32 , 					Size	2 
 Write: Address 0x81034 , 			        Data	0x9 , 					Size	2 
 Write: Address 0x81034 , 			        Data	0x91 , 					Size	2 
 Write: Address 0x81034 , 			        Data	0xc0 , 					Size	2 
 Write: Address 0x81034 , 			        Data	0x6 , 					Size	2 
 Write: Address 0x81034 , 			        Data	0x24 , 					Size	2 
 Write: Address 0x81034 , 			        Data	0x13 , 					Size	2 
 Write: Address 0x81034 , 			        Data	0x20 , 					Size	2 
 Write: Address 0x81034 , 			        Data	0x91 , 					Size	2 
 Write: Address 0x81034 , 			        Data	0x4 , 					Size	2 
 Write: Address 0x81034 , 			        Data	0xc8 , 					Size	2 
 Write: Address 0x81034 , 			        Data	0x26 , 					Size	2 
 Write: Address 0x81034 , 			        Data	0x41 , 					Size	2 
 Write: Address 0x81034 , 			        Data	0x32 , 					Size	2 
 Write: Address 0x81034 , 			        Data	0x28 , 					Size	2 
 Write: Address 0x81034 , 			        Data	0x90 , 					Size	2 
 Write: Address 0x81034 , 			        Data	0x0 , 					Size	2 
 Write: Address 0x81034 , 			        Data	0x0 , 					Size	2 
 Write: Address 0x81034 , 			        Data	0x0 , 					Size	2 
 Write: Address 0x81034 , 			        Data	0x0 , 					Size	2 
 Write: Address 0x81034 , 			        Data	0x0 , 					Size	2 
 Write: Address 0x81034 , 			        Data	0x0 , 					Size	2 
 Write: Address 0x81034 , 			        Data	0x0 , 					Size	2 
 Write: Address 0x81034 , 			        Data	0x0 , 					Size	2 
 Write: Address 0x81034 , 			        Data	0x0 , 					Size	2 
 Write: Address 0x81034 , 			        Data	0x0 , 					Size	2 
 Write: Address 0x81034 , 			        Data	0x0 , 					Size	2 
 Write: Address 0x81034 , 			        Data	0x0 , 					Size	2 
 Write: Address 0x81034 , 			        Data	0x0 , 					Size	2 
 Write: Address 0x81034 , 			        Data	0x0 , 					Size	2 
 Write: Address 0x81034 , 			        Data	0x0 , 					Size	2 
 Write: Address 0x81034 , 			        Data	0x1 , 					Size	2 
 Write: Address 0x81034 , 			        Data	0x20 , 					Size	2 
 Write: Address 0x81034 , 			        Data	0x9 , 					Size	2 
 Write: Address 0x81034 , 			        Data	0x90 , 					Size	2 
 Write: Address 0x81034 , 			        Data	0x4c , 					Size	2 
 Write: Address 0x81034 , 			        Data	0x82 , 					Size	2 
 Write: Address 0x81034 , 			        Data	0x64 , 					Size	2 
 Write: Address 0x81034 , 			        Data	0x13 , 					Size	2 
 Write: Address 0x81034 , 			        Data	0x20 , 					Size	2 
 Write: Address 0x81034 , 			        Data	0x99 , 					Size	2 
 Write: Address 0x81034 , 			        Data	0x4 , 					Size	2 
 Write: Address 0x81034 , 			        Data	0xc8 , 					Size	2 
 Write: Address 0x81034 , 			        Data	0x24 , 					Size	2 
 Write: Address 0x81034 , 			        Data	0x1 , 					Size	2 
 Write: Address 0x81034 , 			        Data	0x32 , 					Size	2 
 Write: Address 0x81034 , 			        Data	0x9 , 					Size	2 
 Write: Address 0x81034 , 			        Data	0x90 , 					Size	2 
 Write: Address 0x81034 , 			        Data	0x4c , 					Size	2 
 Write: Address 0x81034 , 			        Data	0x82 , 					Size	2 
 Write: Address 0x81034 , 			        Data	0x64 , 					Size	2 
 Write: Address 0x81034 , 			        Data	0x13 , 					Size	2 
 Write: Address 0x81034 , 			        Data	0x20 , 					Size	2 
 Write: Address 0x81034 , 			        Data	0xa , 					Size	2 
 Write: Address 0x81034 , 			        Data	0x24 , 					Size	2 
 Write: Address 0x81034 , 			        Data	0x8 , 					Size	2 
 Write: Address 0x81034 , 			        Data	0x2 , 					Size	2 
 Write: Address 0x81034 , 			        Data	0x40 , 					Size	2 
 Write: Address 0x81034 , 			        Data	0x12 , 					Size	2 
 Write: Address 0x81034 , 			        Data	0x0 , 					Size	2 
 Write: Address 0x81034 , 			        Data	0x90 , 					Size	2 
 Write: Address 0x81034 , 			        Data	0x48 , 					Size	2 
 Write: Address 0x81034 , 			        Data	0x82 , 					Size	2 
 Write: Address 0x81034 , 			        Data	0x64 , 					Size	2 
 Write: Address 0x81034 , 			        Data	0x13 , 					Size	2 
 Write: Address 0x81034 , 			        Data	0x20 , 					Size	2 
 Write: Address 0x81034 , 			        Data	0x99 , 					Size	2 
 Write: Address 0x81034 , 			        Data	0x4 , 					Size	2 
 Write: Address 0x81034 , 			        Data	0xc8 , 					Size	2 
 Write: Address 0x81034 , 			        Data	0x24 , 					Size	2 
 Write: Address 0x81034 , 			        Data	0x41 , 					Size	2 
 Write: Address 0x81034 , 			        Data	0x22 , 					Size	2 
 Write: Address 0x81034 , 			        Data	0x89 , 					Size	2 
 Write: Address 0x81034 , 			        Data	0x90 , 					Size	2 
 Write: Address 0x81034 , 			        Data	0x9 , 					Size	2 
 Write: Address 0x81034 , 			        Data	0x1f , 					Size	2 
 Write: Address 0x81034 , 			        Data	0x0 , 					Size	2 
 Write: Address 0x81034 , 			        Data	0xf4 , 					Size	2 
 Write: Address 0x81034 , 			        Data	0x5 , 					Size	2 
 Write: Address 0x81034 , 			        Data	0xe0 , 					Size	2 
 Write: Address 0x81034 , 			        Data	0x3d , 					Size	2 
 Write: Address 0x81034 , 			        Data	0x1 , 					Size	2 
 Write: Address 0x81034 , 			        Data	0x68 , 					Size	2 
 Write: Address 0x81034 , 			        Data	0xa , 					Size	2 
 Write: Address 0x81034 , 			        Data	0x0 , 					Size	2 
 Write: Address 0x81034 , 			        Data	0x50 , 					Size	2 
 Write: Address 0x81034 , 			        Data	0x2 , 					Size	2 
 Write: Address 0x81034 , 			        Data	0x80 , 					Size	2 
 Write: Address 0x81034 , 			        Data	0x16 , 					Size	2 
 Write: Address 0x81034 , 			        Data	0x80 , 					Size	2 
 Write: Address 0x81034 , 			        Data	0xa0 , 					Size	2 
 Write: Address 0x81034 , 			        Data	0x5 , 					Size	2 
 Write: Address 0x81034 , 			        Data	0x0 , 					Size	2 
 Write: Address 0x81034 , 			        Data	0x28 , 					Size	2 
 Write: Address 0x81034 , 			        Data	0x1 , 					Size	2 
 Write: Address 0x81034 , 			        Data	0x68 , 					Size	2 
 Write: Address 0x81034 , 			        Data	0xb , 					Size	2 
 Write: Address 0x81034 , 			        Data	0x40 , 					Size	2 
 Write: Address 0x81034 , 			        Data	0xa , 					Size	2 
 Write: Address 0x81034 , 			        Data	0x3 , 					Size	2 
 Write: Address 0x81034 , 			        Data	0x80 , 					Size	2 
 Write: Address 0x81034 , 			        Data	0x1c , 					Size	2 
 Write: Address 0x81034 , 			        Data	0x0 , 					Size	2 
 Write: Address 0x81034 , 			        Data	0xfc , 					Size	2 
 Write: Address 0x81034 , 			        Data	0x7 , 					Size	2 
 Write: Address 0x81034 , 			        Data	0xe0 , 					Size	2 
 Write: Address 0x81034 , 			        Data	0x28 , 					Size	2 
 Write: Address 0x81034 , 			        Data	0x1 , 					Size	2 
 Write: Address 0x81034 , 			        Data	0x78 , 					Size	2 
 Write: Address 0x81034 , 			        Data	0xf , 					Size	2 
 Write: Address 0x81034 , 			        Data	0xc0 , 					Size	2 
 Write: Address 0x81034 , 			        Data	0x7a , 					Size	2 
 Write: Address 0x81034 , 			        Data	0x3 , 					Size	2 
 Write: Address 0x81034 , 			        Data	0xf0 , 					Size	2 
 Write: Address 0x81034 , 			        Data	0x1f , 					Size	2 
 Write: Address 0x81034 , 			        Data	0x80 , 					Size	2 
 Write: Address 0x81034 , 			        Data	0xfc , 					Size	2 
 Write: Address 0x81034 , 			        Data	0x5 , 					Size	2 
 Write: Address 0x81034 , 			        Data	0xe0 , 					Size	2 
 Write: Address 0x81034 , 			        Data	0x0 , 					Size	2 
 Write: Address 0x81034 , 			        Data	0x0 , 					Size	2 
 Write: Address 0x81034 , 			        Data	0x0 , 					Size	2 
 Write: Address 0x81034 , 			        Data	0x0 , 					Size	2 
 Write: Address 0x81034 , 			        Data	0x0 , 					Size	2 
 Write: Address 0x81034 , 			        Data	0x0 , 					Size	2 
 Write: Address 0x81034 , 			        Data	0x0 , 					Size	2 
 Write: Address 0x81034 , 			        Data	0x0 , 					Size	2 
 Write: Address 0x81034 , 			        Data	0x0 , 					Size	2 
 Write: Address 0x81034 , 			        Data	0x0 , 					Size	2 
 Write: Address 0x81034 , 			        Data	0x0 , 					Size	2 
 Write: Address 0x81034 , 			        Data	0x0 , 					Size	2 
 Write: Address 0x81034 , 			        Data	0x0 , 					Size	2 
 Write: Address 0x81034 , 			        Data	0x0 , 					Size	2 
 Write: Address 0x81034 , 			        Data	0x0 , 					Size	2 
 Write: Address 0x81032 , 			        Data	0x1 , 					Size	2 
Reading
 Write: Address 0x81032 , 			        Data	0x0 , 					Size	2 
 Write: Address 0x81034 , 			        Data	0xd2 , 					Size	2 
 Write: Address 0x81034 , 			        Data	0x6 , 					Size	2 
 Write: Address 0x81034 , 			        Data	0x0 , 					Size	2 
 Write: Address 0x81034 , 			        Data	0x0 , 					Size	2 
 Write: Address 0x81034 , 			        Data	0x0 , 					Size	2 
 Write: Address 0x81034 , 			        Data	0x0 , 					Size	2 
 Write: Address 0x81034 , 			        Data	0x0 , 					Size	2 
 Write: Address 0x81034 , 			        Data	0x0 , 					Size	2 
 Read: Address 0x81034 , 			        Data	0x0 , 					Size	2 
 Read: Address 0x81034 , 			        Data	0xff , 					Size	2 
 Read: Address 0x81034 , 			        Data	0xff , 					Size	2 
 Read: Address 0x81034 , 			        Data	0x46 , 					Size	2 
 Read: Address 0x81034 , 			        Data	0xee , 					Size	2 
 Read: Address 0x81034 , 			        Data	0xfc , 					Size	2 
 Read: Address 0x81034 , 			        Data	0x0 , 					Size	2 
 Read: Address 0x81034 , 			        Data	0xff , 					Size	2 
 Read: Address 0x81034 , 			        Data	0xff , 					Size	2 
 Read: Address 0x81034 , 			        Data	0xff , 					Size	2 
 Read: Address 0x81034 , 			        Data	0xff , 					Size	2 
 Read: Address 0x81034 , 			        Data	0xff , 					Size	2 
 Read: Address 0x81034 , 			        Data	0xff , 					Size	2 
 Read: Address 0x81034 , 			        Data	0xff , 					Size	2 
 Read: Address 0x81034 , 			        Data	0xff , 					Size	2 
 Read: Address 0x81034 , 			        Data	0xff , 					Size	2 
 Read: Address 0x81034 , 			        Data	0xff , 					Size	2 
 Read: Address 0x81034 , 			        Data	0xff , 					Size	2 
 Read: Address 0x81034 , 			        Data	0xff , 					Size	2 
 Read: Address 0x81034 , 			        Data	0xff , 					Size	2 
 Read: Address 0x81034 , 			        Data	0xff , 					Size	2 
 Read: Address 0x81034 , 			        Data	0xff , 					Size	2 
 Read: Address 0x81034 , 			        Data	0xff , 					Size	2 
 Read: Address 0x81034 , 			        Data	0xff , 					Size	2 
 Read: Address 0x81034 , 			        Data	0xff , 					Size	2 
 Read: Address 0x81034 , 			        Data	0xff , 					Size	2 
 Read: Address 0x81034 , 			        Data	0xff , 					Size	2 
 Read: Address 0x81034 , 			        Data	0xff , 					Size	2 
 Read: Address 0x81034 , 			        Data	0xff , 					Size	2 
 Read: Address 0x81034 , 			        Data	0xff , 					Size	2 
 Read: Address 0x81034 , 			        Data	0xff , 					Size	2 
 Read: Address 0x81034 , 			        Data	0xff , 					Size	2 
 Read: Address 0x81034 , 			        Data	0xff , 					Size	2 
 Read: Address 0x81034 , 			        Data	0xff , 					Size	2 
 Read: Address 0x81034 , 			        Data	0xff , 					Size	2 
 Read: Address 0x81034 , 			        Data	0xff , 					Size	2 
 Read: Address 0x81034 , 			        Data	0xff , 					Size	2 
 Read: Address 0x81034 , 			        Data	0xff , 					Size	2 
 Read: Address 0x81034 , 			        Data	0xff , 					Size	2 
 Read: Address 0x81034 , 			        Data	0xff , 					Size	2 
 Read: Address 0x81034 , 			        Data	0xff , 					Size	2 
 Read: Address 0x81034 , 			        Data	0xff , 					Size	2 
 Read: Address 0x81034 , 			        Data	0xff , 					Size	2 
 Read: Address 0x81034 , 			        Data	0xff , 					Size	2 
 Read: Address 0x81034 , 			        Data	0xff , 					Size	2 
 Read: Address 0x81034 , 			        Data	0xff , 					Size	2 
 Read: Address 0x81034 , 			        Data	0xff , 					Size	2 
 Read: Address 0x81034 , 			        Data	0xff , 					Size	2 
 Read: Address 0x81034 , 			        Data	0xff , 					Size	2 
 Read: Address 0x81034 , 			        Data	0xff , 					Size	2 
 Read: Address 0x81034 , 			        Data	0xff , 					Size	2 
 Read: Address 0x81034 , 			        Data	0xff , 					Size	2 
 Read: Address 0x81034 , 			        Data	0xff , 					Size	2 
 Read: Address 0x81034 , 			        Data	0xff , 					Size	2 
 Read: Address 0x81034 , 			        Data	0xff , 					Size	2 
 Read: Address 0x81034 , 			        Data	0xff , 					Size	2 
 Read: Address 0x81034 , 			        Data	0xff , 					Size	2 
 Read: Address 0x81034 , 			        Data	0xff , 					Size	2 
 Read: Address 0x81034 , 			        Data	0xff , 					Size	2 
 Read: Address 0x81034 , 			        Data	0xff , 					Size	2 
 Read: Address 0x81034 , 			        Data	0xff , 					Size	2 
 Read: Address 0x81034 , 			        Data	0xff , 					Size	2 
 Read: Address 0x81034 , 			        Data	0xff , 					Size	2 
 Read: Address 0x81034 , 			        Data	0xff , 					Size	2 
 Read: Address 0x81034 , 			        Data	0xff , 					Size	2 
 Read: Address 0x81034 , 			        Data	0xff , 					Size	2 
 Read: Address 0x81034 , 			        Data	0xff , 					Size	2 
 Read: Address 0x81034 , 			        Data	0xff , 					Size	2 
 Read: Address 0x81034 , 			        Data	0xff , 					Size	2 
 Read: Address 0x81034 , 			        Data	0xff , 					Size	2 
 Read: Address 0x81034 , 			        Data	0xff , 					Size	2 
 Read: Address 0x81034 , 			        Data	0xff , 					Size	2 
 Read: Address 0x81034 , 			        Data	0xff , 					Size	2 
 Read: Address 0x81034 , 			        Data	0xff , 					Size	2 
 Read: Address 0x81034 , 			        Data	0xff , 					Size	2 
 Read: Address 0x81034 , 			        Data	0xff , 					Size	2 
 Read: Address 0x81034 , 			        Data	0xff , 					Size	2 
 Read: Address 0x81034 , 			        Data	0xff , 					Size	2 
 Read: Address 0x81034 , 			        Data	0xff , 					Size	2 
 Read: Address 0x81034 , 			        Data	0xff , 					Size	2 
 Read: Address 0x81034 , 			        Data	0xff , 					Size	2 
 Read: Address 0x81034 , 			        Data	0xff , 					Size	2 
 Read: Address 0x81034 , 			        Data	0xff , 					Size	2 
 Read: Address 0x81034 , 			        Data	0xff , 					Size	2 
 Read: Address 0x81034 , 			        Data	0xff , 					Size	2 
 Read: Address 0x81034 , 			        Data	0xff , 					Size	2 
 Read: Address 0x81034 , 			        Data	0xff , 					Size	2 
 Read: Address 0x81034 , 			        Data	0xff , 					Size	2 
 Read: Address 0x81034 , 			        Data	0xff , 					Size	2 
 Read: Address 0x81034 , 			        Data	0xff , 					Size	2 
 Read: Address 0x81034 , 			        Data	0xff , 					Size	2 
 Read: Address 0x81034 , 			        Data	0xff , 					Size	2 
 Read: Address 0x81034 , 			        Data	0xff , 					Size	2 
 Read: Address 0x81034 , 			        Data	0xff , 					Size	2 
 Read: Address 0x81034 , 			        Data	0xff , 					Size	2 
 Read: Address 0x81034 , 			        Data	0xff , 					Size	2 
 Read: Address 0x81034 , 			        Data	0xff , 					Size	2 
 Read: Address 0x81034 , 			        Data	0xff , 					Size	2 
 Read: Address 0x81034 , 			        Data	0xff , 					Size	2 
 Read: Address 0x81034 , 			        Data	0xff , 					Size	2 
 Read: Address 0x81034 , 			        Data	0xff , 					Size	2 
 Read: Address 0x81034 , 			        Data	0xff , 					Size	2 
 Read: Address 0x81034 , 			        Data	0xff , 					Size	2 
 Read: Address 0x81034 , 			        Data	0xff , 					Size	2 
 Read: Address 0x81034 , 			        Data	0x1 , 					Size	2 
 Read: Address 0x81034 , 			        Data	0x22 , 					Size	2 
 Read: Address 0x81034 , 			        Data	0x98 , 					Size	2 
 Read: Address 0x81034 , 			        Data	0x90 , 					Size	2 
 Read: Address 0x81034 , 			        Data	0x48 , 					Size	2 
 Read: Address 0x81034 , 			        Data	0xaa , 					Size	2 
 Read: Address 0x81034 , 			        Data	0x5 , 					Size	2 
 Read: Address 0x81034 , 			        Data	0x30 , 					Size	2 
 Read: Address 0x81034 , 			        Data	0x2 , 					Size	2 
 Read: Address 0x81034 , 			        Data	0x80 , 					Size	2 
 Read: Address 0x81034 , 			        Data	0xc , 					Size	2 
 Read: Address 0x81034 , 			        Data	0x0 , 					Size	2 
 Read: Address 0x81034 , 			        Data	0xa0 , 					Size	2 
 Read: Address 0x81034 , 			        Data	0x63 , 					Size	2 
 Read: Address 0x81034 , 			        Data	0x0 , 					Size	2 
 Read: Address 0x81034 , 			        Data	0x28 , 					Size	2 
 Read: Address 0x81034 , 			        Data	0x1 , 					Size	2 
 Read: Address 0x81034 , 			        Data	0x40 , 					Size	2 
 Read: Address 0x81034 , 			        Data	0xa , 					Size	2 
 Read: Address 0x81034 , 			        Data	0x5 , 					Size	2 
 Read: Address 0x81034 , 			        Data	0x50 , 					Size	2 
 Read: Address 0x81034 , 			        Data	0x28 , 					Size	2 
 Read: Address 0x81034 , 			        Data	0x1 , 					Size	2 
 Read: Address 0x81034 , 			        Data	0x84 , 					Size	2 
 Read: Address 0x81034 , 			        Data	0x80 , 					Size	2 
 Read: Address 0x81034 , 			        Data	0x24 , 					Size	2 
 Read: Address 0x81034 , 			        Data	0x1 , 					Size	2 
 Read: Address 0x81034 , 			        Data	0x32 , 					Size	2 
 Read: Address 0x81034 , 			        Data	0x9 , 					Size	2 
 Read: Address 0x81034 , 			        Data	0x91 , 					Size	2 
 Read: Address 0x81034 , 			        Data	0xc0 , 					Size	2 
 Read: Address 0x81034 , 			        Data	0x6 , 					Size	2 
 Read: Address 0x81034 , 			        Data	0x24 , 					Size	2 
 Read: Address 0x81034 , 			        Data	0x13 , 					Size	2 
 Read: Address 0x81034 , 			        Data	0x20 , 					Size	2 
 Read: Address 0x81034 , 			        Data	0x91 , 					Size	2 
 Read: Address 0x81034 , 			        Data	0x4 , 					Size	2 
 Read: Address 0x81034 , 			        Data	0xc8 , 					Size	2 
 Read: Address 0x81034 , 			        Data	0x26 , 					Size	2 
 Read: Address 0x81034 , 			        Data	0x41 , 					Size	2 
 Read: Address 0x81034 , 			        Data	0x32 , 					Size	2 
 Read: Address 0x81034 , 			        Data	0x28 , 					Size	2 
 Read: Address 0x81034 , 			        Data	0x90 , 					Size	2 
 Read: Address 0x81034 , 			        Data	0x0 , 					Size	2 
 Read: Address 0x81034 , 			        Data	0x0 , 					Size	2 
 Read: Address 0x81034 , 			        Data	0x0 , 					Size	2 
 Read: Address 0x81034 , 			        Data	0x0 , 					Size	2 
 Read: Address 0x81034 , 			        Data	0x0 , 					Size	2 
 Read: Address 0x81034 , 			        Data	0x0 , 					Size	2 
 Read: Address 0x81034 , 			        Data	0x0 , 					Size	2 
 Read: Address 0x81034 , 			        Data	0x0 , 					Size	2 
 Read: Address 0x81034 , 			        Data	0x0 , 					Size	2 
 Read: Address 0x81034 , 			        Data	0x0 , 					Size	2 
 Read: Address 0x81034 , 			        Data	0x0 , 					Size	2 
 Read: Address 0x81034 , 			        Data	0x0 , 					Size	2 
 Read: Address 0x81034 , 			        Data	0x0 , 					Size	2 
 Read: Address 0x81034 , 			        Data	0x0 , 					Size	2 
 Read: Address 0x81034 , 			        Data	0x0 , 					Size	2 
 Read: Address 0x81034 , 			        Data	0x1 , 					Size	2 
 Read: Address 0x81034 , 			        Data	0x20 , 					Size	2 
 Read: Address 0x81034 , 			        Data	0x9 , 					Size	2 
 Read: Address 0x81034 , 			        Data	0x90 , 					Size	2 
 Read: Address 0x81034 , 			        Data	0x4c , 					Size	2 
 Read: Address 0x81034 , 			        Data	0x82 , 					Size	2 
 Read: Address 0x81034 , 			        Data	0x64 , 					Size	2 
 Read: Address 0x81034 , 			        Data	0x13 , 					Size	2 
 Read: Address 0x81034 , 			        Data	0x20 , 					Size	2 
 Read: Address 0x81034 , 			        Data	0x99 , 					Size	2 
 Read: Address 0x81034 , 			        Data	0x4 , 					Size	2 
 Read: Address 0x81034 , 			        Data	0xc8 , 					Size	2 
 Read: Address 0x81034 , 			        Data	0x24 , 					Size	2 
 Read: Address 0x81034 , 			        Data	0x1 , 					Size	2 
 Read: Address 0x81034 , 			        Data	0x32 , 					Size	2 
 Read: Address 0x81034 , 			        Data	0x9 , 					Size	2 
 Read: Address 0x81034 , 			        Data	0x90 , 					Size	2 
 Read: Address 0x81034 , 			        Data	0x4c , 					Size	2 
 Read: Address 0x81034 , 			        Data	0x82 , 					Size	2 
 Read: Address 0x81034 , 			        Data	0x64 , 					Size	2 
 Read: Address 0x81034 , 			        Data	0x13 , 					Size	2 
 Read: Address 0x81034 , 			        Data	0x20 , 					Size	2 
 Read: Address 0x81034 , 			        Data	0xa , 					Size	2 
 Read: Address 0x81034 , 			        Data	0x24 , 					Size	2 
 Read: Address 0x81034 , 			        Data	0x8 , 					Size	2 
 Read: Address 0x81034 , 			        Data	0x2 , 					Size	2 
 Read: Address 0x81034 , 			        Data	0x40 , 					Size	2 
 Read: Address 0x81034 , 			        Data	0x12 , 					Size	2 
 Read: Address 0x81034 , 			        Data	0x0 , 					Size	2 
 Read: Address 0x81034 , 			        Data	0x90 , 					Size	2 
 Read: Address 0x81034 , 			        Data	0x48 , 					Size	2 
 Read: Address 0x81034 , 			        Data	0x82 , 					Size	2 
 Read: Address 0x81034 , 			        Data	0x64 , 					Size	2 
 Read: Address 0x81034 , 			        Data	0x13 , 					Size	2 
 Read: Address 0x81034 , 			        Data	0x20 , 					Size	2 
 Read: Address 0x81034 , 			        Data	0x99 , 					Size	2 
 Read: Address 0x81034 , 			        Data	0x4 , 					Size	2 
 Read: Address 0x81034 , 			        Data	0xc8 , 					Size	2 
 Read: Address 0x81034 , 			        Data	0x24 , 					Size	2 
 Read: Address 0x81034 , 			        Data	0x41 , 					Size	2 
 Read: Address 0x81034 , 			        Data	0x22 , 					Size	2 
 Read: Address 0x81034 , 			        Data	0x89 , 					Size	2 
 Read: Address 0x81034 , 			        Data	0x90 , 					Size	2 
 Read: Address 0x81034 , 			        Data	0x9 , 					Size	2 
 Read: Address 0x81034 , 			        Data	0x1f , 					Size	2 
 Read: Address 0x81034 , 			        Data	0x0 , 					Size	2 
 Read: Address 0x81034 , 			        Data	0xf4 , 					Size	2 
 Read: Address 0x81034 , 			        Data	0x5 , 					Size	2 
 Read: Address 0x81034 , 			        Data	0xe0 , 					Size	2 
 Read: Address 0x81034 , 			        Data	0x3d , 					Size	2 
 Read: Address 0x81034 , 			        Data	0x1 , 					Size	2 
 Read: Address 0x81034 , 			        Data	0x68 , 					Size	2 
 Read: Address 0x81034 , 			        Data	0xa , 					Size	2 
 Read: Address 0x81034 , 			        Data	0x0 , 					Size	2 
 Read: Address 0x81034 , 			        Data	0x50 , 					Size	2 
 Read: Address 0x81034 , 			        Data	0x2 , 					Size	2 
 Read: Address 0x81034 , 			        Data	0x80 , 					Size	2 
 Read: Address 0x81034 , 			        Data	0x16 , 					Size	2 
 Read: Address 0x81034 , 			        Data	0x80 , 					Size	2 
 Read: Address 0x81034 , 			        Data	0xa0 , 					Size	2 
 Read: Address 0x81034 , 			        Data	0x5 , 					Size	2 
 Read: Address 0x81034 , 			        Data	0x0 , 					Size	2 
 Read: Address 0x81034 , 			        Data	0x28 , 					Size	2 
 Read: Address 0x81034 , 			        Data	0x1 , 					Size	2 
 Read: Address 0x81034 , 			        Data	0x68 , 					Size	2 
 Read: Address 0x81034 , 			        Data	0xb , 					Size	2 
 Read: Address 0x81034 , 			        Data	0x40 , 					Size	2 
 Read: Address 0x81034 , 			        Data	0xa , 					Size	2 
 Read: Address 0x81034 , 			        Data	0x3 , 					Size	2 
 Read: Address 0x81034 , 			        Data	0x80 , 					Size	2 
 Read: Address 0x81034 , 			        Data	0x1c , 					Size	2 
 Read: Address 0x81034 , 			        Data	0x0 , 					Size	2 
 Read: Address 0x81034 , 			        Data	0xfc , 					Size	2 
 Read: Address 0x81034 , 			        Data	0x7 , 					Size	2 
 Read: Address 0x81034 , 			        Data	0xe0 , 					Size	2 
 Read: Address 0x81034 , 			        Data	0x28 , 					Size	2 
 Read: Address 0x81034 , 			        Data	0x1 , 					Size	2 
 Read: Address 0x81034 , 			        Data	0x78 , 					Size	2 
 Read: Address 0x81034 , 			        Data	0xf , 					Size	2 
 Read: Address 0x81034 , 			        Data	0xc0 , 					Size	2 
 Read: Address 0x81034 , 			        Data	0x7a , 					Size	2 
 Read: Address 0x81034 , 			        Data	0x3 , 					Size	2 
 Read: Address 0x81034 , 			        Data	0xf0 , 					Size	2 
 Read: Address 0x81034 , 			        Data	0x1f , 					Size	2 
 Read: Address 0x81034 , 			        Data	0x80 , 					Size	2 
 Read: Address 0x81034 , 			        Data	0xfc , 					Size	2 
 Read: Address 0x81034 , 			        Data	0x5 , 					Size	2 
 Read: Address 0x81034 , 			        Data	0xe0 , 					Size	2 
 Read: Address 0x81034 , 			        Data	0x0 , 					Size	2 
 Read: Address 0x81034 , 			        Data	0x0 , 					Size	2 
 Read: Address 0x81034 , 			        Data	0x0 , 					Size	2 
 Read: Address 0x81034 , 			        Data	0x0 , 					Size	2 
 Read: Address 0x81034 , 			        Data	0x0 , 					Size	2 
 Read: Address 0x81034 , 			        Data	0x0 , 					Size	2 
 Read: Address 0x81034 , 			        Data	0x0 , 					Size	2 
 Read: Address 0x81034 , 			        Data	0x0 , 					Size	2 
 Read: Address 0x81034 , 			        Data	0x0 , 					Size	2 
 Read: Address 0x81034 , 			        Data	0x0 , 					Size	2 
 Read: Address 0x81034 , 			        Data	0x0 , 					Size	2 
 Read: Address 0x81034 , 			        Data	0x0 , 					Size	2 
 Read: Address 0x81034 , 			        Data	0x0 , 					Size	2 
 Read: Address 0x81034 , 			        Data	0x0 , 					Size	2 
 Write: Address 0x81032 , 			        Data	0x1 , 					Size	2 
 CFsize = 166965 , PageSize = 264
comparing: pdr[0]:0x0 with CFData[0]:0xff

Flash verify error (byte 0 of page 768)!
The STD image can be corrupted! 
Move the jumper to Backup image and cycle the power
